{
  "total_page": 20,
  "total_count": 399,
  "current_page": 1,
  "radios": [
    {
      "id": 527782008,
      "kind": "radio",
      "program_name": "",
      "radio_name": "Авторадио",
      "radio_desc": "Авторадио — крупнейшая коммерческая радиостанция. Популярные программы с участием суперзвезд и народных любимцев; самая актуальная, интересная и оперативная информация; увлекательные, динамичные игры в эфире.",
      "schedule_id": 0,
      "support_bitrates": [64],
      "rate24_aac_url": "",
      "rate64_aac_url": "http://ximiraga.ru/527782008d41d8cd98f00.m3u8",
      "rate24_ts_url": "",
      "rate64_ts_url": "",
      "radio_play_count": 1,
      "cover_url_small": "http://91.244.172.88/images/radiologos/thumb/thumb_FK0SgVhFJKNTPfB.jpeg",
      "cover_url_large": "http://91.244.172.88/images/radiologos/FK0SgVhFJKNTPfB.jpeg",
      "updated_at": 0,
      "created_at": 0
    },
    {
      "id": 527782009,
      "kind": "radio",
      "program_name": "",
      "radio_name": "Love Radio RUS",
      "radio_desc": "Love Radio — российская музыкальная радиостанция, основанная Игорем Крутым. Вещает с 28 июля 2000 года. Страны вещания: Россия, Казахстан, Таджикистан, Молдавия. Целевая аудитория — слушатели в возрасте от 12 лет и старше.",
      "schedule_id": 0,
      "support_bitrates": [64],
      "rate24_aac_url": "",
      "rate64_aac_url": "http://ximiraga.ru/527782009d41d8cd98f00.m3u8",
      "rate24_ts_url": "",
      "rate64_ts_url": "",
      "radio_play_count": 1,
      "cover_url_small": "http://91.244.172.88/images/radiologos/thumb/thumb_T4MnRMNHUvbIl3W.png",
      "cover_url_large": "http://91.244.172.88/images/radiologos/T4MnRMNHUvbIl3W.png",
      "updated_at": 0,
      "created_at": 0
    },
    {
      "id": 527782010,
      "kind": "radio",
      "program_name": "",
      "radio_name": "Эхо Москвы",
      "radio_desc": "«Эхо Москвы» — московская информационно-разговорная радиостанция, в эфире которой всегда актуальные темы для разговоров, последние политические, экономические и спортивные новости, интервью с политиками.",
      "schedule_id": 0,
      "support_bitrates": [64],
      "rate24_aac_url": "",
      "rate64_aac_url": "http://ximiraga.ru/527782010d41d8cd98f00.m3u8",
      "rate24_ts_url": "",
      "rate64_ts_url": "",
      "radio_play_count": 1,
      "cover_url_small": "http://91.244.172.88/images/radiologos/thumb/thumb_744sx6wttb6DVDn.jpg",
      "cover_url_large": "http://91.244.172.88/images/radiologos/744sx6wttb6DVDn.jpg",
      "updated_at": 0,
      "created_at": 0
    },
    {
      "id": 527782011,
      "kind": "radio",
      "program_name": "",
      "radio_name": "Наше Радио",
      "radio_desc": "Наше Радио - российская рок радиостанция, транслирующая музыку в формате русского рока и знакомая во всех уголках России. Наше Радио это больше чем радио. Это образ жизни для миллионов слушателей разных поколений.",
      "schedule_id": 0,
      "support_bitrates": [64],
      "rate24_aac_url": "",
      "rate64_aac_url": "http://ximiraga.ru/527782011d41d8cd98f00.m3u8",
      "rate24_ts_url": "",
      "rate64_ts_url": "",
      "radio_play_count": 1,
      "cover_url_small": "http://91.244.172.88/images/radiologos/thumb/thumb_k01bK79qpTRby37.jpg",
      "cover_url_large": "http://91.244.172.88/images/radiologos/k01bK79qpTRby37.jpg",
      "updated_at": 0,
      "created_at": 0
    },
    {
      "id": 527782019,
      "kind": "radio",
      "program_name": "",
      "radio_name": "Дорожное",
      "radio_desc": "«Дорожного радио» — это ваш добрый попутчик в мире хорошей музыки. Дорожное радио – вместе в пути!",
      "schedule_id": 0,
      "support_bitrates": [64],
      "rate24_aac_url": "",
      "rate64_aac_url": "http://ximiraga.ru/527782019d41d8cd98f00.m3u8",
      "rate24_ts_url": "",
      "rate64_ts_url": "",
      "radio_play_count": 1,
      "cover_url_small": "http://91.244.172.88/images/radiologos/thumb/thumb_7vTK0ZHOfjb4UKY.jpg",
      "cover_url_large": "http://91.244.172.88/images/radiologos/7vTK0ZHOfjb4UKY.jpg",
      "updated_at": 0,
      "created_at": 0
    },
    {
      "id": 527782020,
      "kind": "radio",
      "program_name": "",
      "radio_name": "Байкер ФМ",
      "radio_desc": "Это первая радиостанция для байкеров и мотоциклистов, посвященная байкерской культуре и музыке. В эфире звучит музыка в стилях глэм-рок, хард-рок, альтернативный рок, хеви-метал, трэш-метал, индастриал-метал и рок-н-ролл.",
      "schedule_id": 0,
      "support_bitrates": [64],
      "rate24_aac_url": "",
      "rate64_aac_url": "http://ximiraga.ru/527782020d41d8cd98f00.m3u8",
      "rate24_ts_url": "",
      "rate64_ts_url": "",
      "radio_play_count": 1,
      "cover_url_small": "http://91.244.172.88/images/radiologos/thumb/thumb_U02K6X5TIUeJmSV.jpg",
      "cover_url_large": "http://91.244.172.88/images/radiologos/U02K6X5TIUeJmSV.jpg",
      "updated_at": 0,
      "created_at": 0
    },
    {
      "id": 527782022,
      "kind": "radio",
      "program_name": "",
      "radio_name": "Радио Маяк",
      "radio_desc": "Государственная радиовещательная компания «Маяк» ГРК «Маяк» — одна из крупнейших и самых узнаваемых радиостанций на территории бывшего СССР.",
      "schedule_id": 0,
      "support_bitrates": [64],
      "rate24_aac_url": "",
      "rate64_aac_url": "http://ximiraga.ru/527782022d41d8cd98f00.m3u8",
      "rate24_ts_url": "",
      "rate64_ts_url": "",
      "radio_play_count": 1,
      "cover_url_small": "http://91.244.172.88/images/radiologos/thumb/thumb_ScMI0J4Kr5V29ZY.jpeg",
      "cover_url_large": "http://91.244.172.88/images/radiologos/ScMI0J4Kr5V29ZY.jpeg",
      "updated_at": 0,
      "created_at": 0
    },
    {
      "id": 527782023,
      "kind": "radio",
      "program_name": "",
      "radio_name": "Коммерсант FM",
      "radio_desc": "Формат радиостанции — all news radio. Каждые 10 минут в эфире последние новости, главные темы дня, ситуация на рынках, новости спорта, актуальный трафик и погода. Каждые 20 минут выходят рубрики собственного производства. В 2013 году в сетке вещания появились также утреннее и вечернее шоу ежедневно по будням, а также шоу выходного дня.",
      "schedule_id": 0,
      "support_bitrates": [64],
      "rate24_aac_url": "",
      "rate64_aac_url": "http://ximiraga.ru/527782023d41d8cd98f00.m3u8",
      "rate24_ts_url": "",
      "rate64_ts_url": "",
      "radio_play_count": 1,
      "cover_url_small": "http://91.244.172.88/images/radiologos/thumb/thumb_KXV1Q39yf4bubp1.jpg",
      "cover_url_large": "http://91.244.172.88/images/radiologos/KXV1Q39yf4bubp1.jpg",
      "updated_at": 0,
      "created_at": 0
    },
    {
      "id": 527782024,
      "kind": "radio",
      "program_name": "",
      "radio_name": "Европа Плюс",
      "radio_desc": "В ротации самой популярной радиостанции Европа Плюс только топовые новинки в формате Еврохит нон-стоп.",
      "schedule_id": 0,
      "support_bitrates": [64],
      "rate24_aac_url": "",
      "rate64_aac_url": "http://ximiraga.ru/527782024d41d8cd98f00.m3u8",
      "rate24_ts_url": "",
      "rate64_ts_url": "",
      "radio_play_count": 1,
      "cover_url_small": "http://91.244.172.88/images/radiologos/thumb/thumb_6SMRgH1oG5MrnrF.jpg",
      "cover_url_large": "http://91.244.172.88/images/radiologos/6SMRgH1oG5MrnrF.jpg",
      "updated_at": 0,
      "created_at": 0
    },
    {
      "id": 527782025,
      "kind": "radio",
      "program_name": "",
      "radio_name": "Радио Ultra",
      "radio_desc": "Ultra — популярная молодежная рок радиостанция на территории СНГ. Лучший альтернативный рок можно услышать только на радио Ультра.",
      "schedule_id": 0,
      "support_bitrates": [64],
      "rate24_aac_url": "",
      "rate64_aac_url": "http://ximiraga.ru/527782025d41d8cd98f00.m3u8",
      "rate24_ts_url": "",
      "rate64_ts_url": "",
      "radio_play_count": 1,
      "cover_url_small": "http://91.244.172.88/images/radiologos/thumb/thumb_jvi5u1DTd5Y2i1P.jpg",
      "cover_url_large": "http://91.244.172.88/images/radiologos/jvi5u1DTd5Y2i1P.jpg",
      "updated_at": 0,
      "created_at": 0
    },
    {
      "id": 527782028,
      "kind": "radio",
      "program_name": "",
      "radio_name": "Радио Свобода",
      "radio_desc": "",
      "schedule_id": 0,
      "support_bitrates": [64],
      "rate24_aac_url": "",
      "rate64_aac_url": "http://ximiraga.ru/527782028d41d8cd98f00.m3u8",
      "rate24_ts_url": "",
      "rate64_ts_url": "",
      "radio_play_count": 1,
      "cover_url_small": "http://91.244.172.88/images/radiologos/thumb/thumb_s0UWlxSYilUXoXb.jpg",
      "cover_url_large": "http://91.244.172.88/images/radiologos/s0UWlxSYilUXoXb.jpg",
      "updated_at": 0,
      "created_at": 0
    },
    {
      "id": 527782030,
      "kind": "radio",
      "program_name": "",
      "radio_name": "Radio Record",
      "radio_desc": "На первой танцевальной радиостанции России — Радио Рекорд можно послушать ремиксы на популярные клубные хиты. Ведущие радио Record Крем и Хруст поднимут тебе настроение в своем шоу.",
      "schedule_id": 0,
      "support_bitrates": [64],
      "rate24_aac_url": "",
      "rate64_aac_url": "http://ximiraga.ru/527782030d41d8cd98f00.m3u8",
      "rate24_ts_url": "",
      "rate64_ts_url": "",
      "radio_play_count": 1,
      "cover_url_small": "http://91.244.172.88/images/radiologos/thumb/thumb_ZU71qdTIhC4jWBz.jpg",
      "cover_url_large": "http://91.244.172.88/images/radiologos/ZU71qdTIhC4jWBz.jpg",
      "updated_at": 0,
      "created_at": 0
    },
    {
      "id": 527782031,
      "kind": "radio",
      "program_name": "",
      "radio_name": "Наше радио UA",
      "radio_desc": "Наше радио Украина",
      "schedule_id": 0,
      "support_bitrates": [64],
      "rate24_aac_url": "",
      "rate64_aac_url": "http://ximiraga.ru/527782031d41d8cd98f00.m3u8",
      "rate24_ts_url": "",
      "rate64_ts_url": "",
      "radio_play_count": 1,
      "cover_url_small": "http://91.244.172.88/images/radiologos/thumb/thumb_naS6a6f540xympv.jpg",
      "cover_url_large": "http://91.244.172.88/images/radiologos/naS6a6f540xympv.jpg",
      "updated_at": 0,
      "created_at": 0
    },
    {
      "id": 527782047,
      "kind": "radio",
      "program_name": "",
      "radio_name": "Business FM!",
      "radio_desc": "Оперативные новости, комментарии экспертов и бизнес-аналитика ключевых событий.",
      "schedule_id": 0,
      "support_bitrates": [64],
      "rate24_aac_url": "",
      "rate64_aac_url": "http://ximiraga.ru/527782047d41d8cd98f00.m3u8",
      "rate24_ts_url": "",
      "rate64_ts_url": "",
      "radio_play_count": 1,
      "cover_url_small": "http://91.244.172.88/images/radiologos/thumb/thumb_751gzVSe414LvaV.jpg",
      "cover_url_large": "http://91.244.172.88/images/radiologos/751gzVSe414LvaV.jpg",
      "updated_at": 0,
      "created_at": 0
    },
    {
      "id": 527782049,
      "kind": "radio",
      "program_name": "",
      "radio_name": "Радио Спутник",
      "radio_desc": "Задачи радиостанции — знакомить мировое сообщество с жизнью России, с точкой зрения российского государства на события в мире, вести диалог с соотечественниками за рубежом, содействовать популяризации русской культуры и русского языка.",
      "schedule_id": 0,
      "support_bitrates": [64],
      "rate24_aac_url": "",
      "rate64_aac_url": "http://ximiraga.ru/527782049d41d8cd98f00.m3u8",
      "rate24_ts_url": "",
      "rate64_ts_url": "",
      "radio_play_count": 1,
      "cover_url_small": "http://91.244.172.88/images/radiologos/thumb/thumb_ix5mQemoG08q770.jpg",
      "cover_url_large": "http://91.244.172.88/images/radiologos/ix5mQemoG08q770.jpg",
      "updated_at": 0,
      "created_at": 0
    },
    {
      "id": 527782050,
      "kind": "radio",
      "program_name": "",
      "radio_name": "Спокойное радио",
      "radio_desc": "Муыкальные произведения в стилях джаз, мягкий эмбиент, lounge, chill-out, easy listening и звуки природы.",
      "schedule_id": 0,
      "support_bitrates": [64],
      "rate24_aac_url": "",
      "rate64_aac_url": "http://ximiraga.ru/527782050d41d8cd98f00.m3u8",
      "rate24_ts_url": "",
      "rate64_ts_url": "",
      "radio_play_count": 1,
      "cover_url_small": "http://91.244.172.88/images/radiologos/thumb/thumb_37MwuX23FIIdvSb.jpg",
      "cover_url_large": "http://91.244.172.88/images/radiologos/37MwuX23FIIdvSb.jpg",
      "updated_at": 0,
      "created_at": 0
    },
    {
      "id": 527782051,
      "kind": "radio",
      "program_name": "",
      "radio_name": "Coffee FM",
      "radio_desc": "Coffee Fm Создайте уют кафе для себя в любом месте, где бы Вы не находились.",
      "schedule_id": 0,
      "support_bitrates": [64],
      "rate24_aac_url": "",
      "rate64_aac_url": "http://ximiraga.ru/527782051d41d8cd98f00.m3u8",
      "rate24_ts_url": "",
      "rate64_ts_url": "",
      "radio_play_count": 1,
      "cover_url_small": "http://91.244.172.88/images/radiologos/thumb/thumb_3EN6Irt1lqTk2T7.jpg",
      "cover_url_large": "http://91.244.172.88/images/radiologos/3EN6Irt1lqTk2T7.jpg",
      "updated_at": 0,
      "created_at": 0
    },
    {
      "id": 527782065,
      "kind": "radio",
      "program_name": "",
      "radio_name": "DJFM UA",
      "radio_desc": "DJFM - это доступный ресурс актуального потока информации, подающейся на фоне самой модной музыки.",
      "schedule_id": 0,
      "support_bitrates": [64],
      "rate24_aac_url": "",
      "rate64_aac_url": "http://ximiraga.ru/527782065d41d8cd98f00.m3u8",
      "rate24_ts_url": "",
      "rate64_ts_url": "",
      "radio_play_count": 1,
      "cover_url_small": "http://91.244.172.88/images/radiologos/thumb/thumb_qIeFFddgkZVVIS3.png",
      "cover_url_large": "http://91.244.172.88/images/radiologos/qIeFFddgkZVVIS3.png",
      "updated_at": 0,
      "created_at": 0
    },
    {
      "id": 527782067,
      "kind": "radio",
      "program_name": "",
      "radio_name": "Аплюс Первый BY",
      "radio_desc": "Самый позитивный и самый популярный поток. Имеет склонность к танцевальной музыке. Ежедневное обновление ротации. Непередаваемая атмосфера эфира. Прямые включения с раскаленных танцполов и молниеносная передача ощущений.http://shoutcast.aplus.fm:9000/aplus_128",
      "schedule_id": 0,
      "support_bitrates": [64],
      "rate24_aac_url": "",
      "rate64_aac_url": "http://ximiraga.ru/527782067d41d8cd98f00.m3u8",
      "rate24_ts_url": "",
      "rate64_ts_url": "",
      "radio_play_count": 1,
      "cover_url_small": "http://91.244.172.88/images/radiologos/thumb/thumb_c1s0Q251qbLG56q.png",
      "cover_url_large": "http://91.244.172.88/images/radiologos/c1s0Q251qbLG56q.png",
      "updated_at": 0,
      "created_at": 0
    },
    {
      "id": 527782068,
      "kind": "radio",
      "program_name": "",
      "radio_name": "Аплюс Rock BY",
      "radio_desc": "От прогресивного рока до гроул - метал, от рок-н-рола до эмо рока, плюс самые горячие, хитовые и актуальные новинки. На радио Аплюс Rock вы найдете не только любимую музыку, но и передачи, посвященные рок-субкультуре, новым релизам и многое другое",
      "schedule_id": 0,
      "support_bitrates": [64],
      "rate24_aac_url": "",
      "rate64_aac_url": "http://ximiraga.ru/527782068d41d8cd98f00.m3u8",
      "rate24_ts_url": "",
      "rate64_ts_url": "",
      "radio_play_count": 1,
      "cover_url_small": "http://91.244.172.88/images/radiologos/thumb/thumb_66L1yhuvkvWmHUV.jpg",
      "cover_url_large": "http://91.244.172.88/images/radiologos/66L1yhuvkvWmHUV.jpg",
      "updated_at": 0,
      "created_at": 0
    }
  ]
}
